<svg width="34" height="33" viewBox="0 0 34 33" fill="none" xmlns="http://www.w3.org/2000/svg">
<path d="M17 32.3561C25.8366 32.3561 33 25.1927 33 16.3561C33 7.51958 25.8366 0.35614 17 0.35614C8.16344 0.35614 1 7.51958 1 16.3561C1 25.1927 8.16344 32.3561 17 32.3561Z" stroke="#171321" stroke-width="0.680851" stroke-miterlimit="10"/>
<path d="M3.38281 24.8668C7.30792 22.3238 11.9752 20.7817 16.9998 20.7817C22.0245 20.7817 26.6918 22.3238 30.6169 24.8668" stroke="#171321" stroke-width="0.680851" stroke-miterlimit="10"/>
<path d="M15.9785 20.7817L22.787 11.5902H23.4679L19.7232 20.7817" stroke="#171321" stroke-width="0.680851" stroke-miterlimit="10"/>
<path d="M17 0.35614V3.26678" stroke="#171321" stroke-width="0.680851" stroke-miterlimit="10"/>
<path d="M33.0005 16.3561H30.0898" stroke="#171321" stroke-width="0.680851" stroke-miterlimit="10"/>
<path d="M28.2717 5.08466L26.5186 6.83785" stroke="#171321" stroke-width="0.680851" stroke-miterlimit="10"/>
<path d="M5.72852 5.08466L7.48171 6.83785" stroke="#171321" stroke-width="0.680851" stroke-miterlimit="10"/>
<path d="M3.91064 16.3561H1" stroke="#171321" stroke-width="0.680851" stroke-miterlimit="10"/>
</svg>
