<svg width="24" height="24" viewBox="0 0 24 24" fill="none" xmlns="http://www.w3.org/2000/svg">
<g clip-path="url(#clip0_457_1125)">
<path d="M0.479492 7.63928H23.5195" stroke="#A989F5" stroke-width="0.92" stroke-linecap="round" stroke-linejoin="round"/>
<path d="M0.479492 9.59998V20.9736C0.479492 21.4879 0.6838 21.9811 1.04747 22.3448C1.41114 22.7085 1.90438 22.9128 2.41869 22.9128H21.5803C22.0946 22.9128 22.5878 22.7085 22.9515 22.3448C23.3152 21.9811 23.5195 21.4879 23.5195 20.9736V9.59998" stroke="#A989F5" stroke-width="0.92" stroke-linecap="round" stroke-linejoin="round"/>
<path d="M18.7195 2.29919H2.41869C1.90416 2.29983 1.41093 2.50467 1.04732 2.86872C0.683723 3.23277 0.479492 3.72626 0.479492 4.24079V7.63919" stroke="#A989F5" stroke-width="0.92" stroke-linecap="round" stroke-linejoin="round"/>
<path d="M23.5211 7.63919V4.24079C23.5211 3.72626 23.3169 3.23277 22.9533 2.86872C22.5897 2.50467 22.0964 2.29983 21.5819 2.29919H21.1211" stroke="#A989F5" stroke-width="0.92" stroke-linecap="round" stroke-linejoin="round"/>
<path d="M7.19757 11.0376H3.39404V13.8241H7.19757V11.0376Z" stroke="#A989F5" stroke-width="0.92" stroke-linecap="round" stroke-linejoin="round"/>
<path d="M13.9046 11.0376H10.1011V13.8241H13.9046V11.0376Z" stroke="#A989F5" stroke-width="0.92" stroke-linecap="round" stroke-linejoin="round"/>
<path d="M20.6155 11.0376H16.812V13.8241H20.6155V11.0376Z" stroke="#A989F5" stroke-width="0.92" stroke-linecap="round" stroke-linejoin="round"/>
<path d="M7.19757 16.7328H3.39404V19.5193H7.19757V16.7328Z" stroke="#A989F5" stroke-width="0.92" stroke-linecap="round" stroke-linejoin="round"/>
<path d="M13.9046 16.7328H10.1011V19.5193H13.9046V16.7328Z" stroke="#A989F5" stroke-width="0.92" stroke-linecap="round" stroke-linejoin="round"/>
<path d="M20.6155 16.7328H16.812V19.5193H20.6155V16.7328Z" stroke="#A989F5" stroke-width="0.92" stroke-linecap="round" stroke-linejoin="round"/>
<path d="M5.29102 3.51798V1.08728" stroke="#A989F5" stroke-width="0.92" stroke-linecap="round" stroke-linejoin="round"/>
<path d="M18.708 3.51798V1.08728" stroke="#A989F5" stroke-width="0.92" stroke-linecap="round" stroke-linejoin="round"/>
</g>
<defs>
<clipPath id="clip0_457_1125">
<rect width="24" height="24" fill="white"/>
</clipPath>
</defs>
</svg>
