<svg width="421" height="340" viewBox="0 0 421 340" fill="none" xmlns="http://www.w3.org/2000/svg">
<path d="M147.92 130.601L187.223 134.909L195.299 155.368L181.839 167.751L151.689 158.06L147.92 130.601Z" fill="#171321"/>
<rect x="13.3193" y="147.292" width="26.9201" height="58.1474" fill="#171321"/>
<rect x="66.0825" y="96.682" width="59.2242" height="22.6129" fill="#171321"/>
<rect x="88.6953" y="234.513" width="47.3794" height="20.4593" fill="#171321"/>
<path d="M317.795 270.547C310.845 279.169 302.955 288.261 294.228 295.629C273.953 312.769 246.937 325.153 210.672 337.904C174.459 325.153 147.391 312.717 127.116 295.629C118.389 288.261 110.499 279.169 103.549 270.547" stroke="#A989F5" stroke-width="3.43033" stroke-miterlimit="10"/>
<path d="M66.9702 90.0049V58.1815C164.478 59.8536 210.672 3 210.672 3C210.672 3 256.866 59.8536 354.374 58.1815V89.9526" stroke="#A989F5" stroke-width="3.43033" stroke-miterlimit="10"/>
<path d="M276.252 128.883L271.706 161.49L249.549 178.264L210.776 207.684L173.361 236.058L177.96 203.294L145.144 198.644L172.055 178.264L210.828 148.844L243.331 124.232L276.252 128.883Z" fill="#A989F5"/>
<path d="M383.115 103.33L387.713 135.937L354.636 140.588C366.393 149.106 374.022 162.901 374.022 178.473C374.022 191.485 368.692 203.242 360.123 211.707L355.315 245.673L387.452 250.167C407.988 233.027 421 207.266 421 178.473C421 147.642 406.107 120.365 383.115 103.33Z" fill="#A989F5"/>
<path d="M376.791 98.836C372.506 96.1188 368.065 93.7673 363.362 91.8339C352.231 87.1309 340.056 84.5181 327.253 84.5181C320.774 84.5181 314.503 85.1975 308.389 86.4516C294.698 89.2734 282.105 95.1259 271.34 103.278L249.602 119.79L282.627 124.493L278.081 157.205L297.259 142.626C305.358 135.78 315.809 131.705 327.201 131.705C334.255 131.705 340.996 133.272 346.954 136.146L381.285 131.287L376.791 98.836Z" fill="#A989F5"/>
<path d="M381.285 254.975C375.746 258.894 369.789 262.238 363.466 264.903C352.388 269.554 340.161 272.114 327.358 272.114C306.508 272.114 287.278 265.269 271.706 253.72L255.298 241.284L250.647 208.206L283.046 203.66L301.178 217.351C308.651 222.367 317.639 225.346 327.254 225.346C336.921 225.346 346.222 222.315 353.799 217.09L349.096 250.481L381.285 254.975Z" fill="#A989F5"/>
<path fill-rule="evenodd" clip-rule="evenodd" d="M244.326 161.908C245.214 161.804 246.103 161.438 246.991 160.759C247.67 160.236 248.193 159.661 248.559 159.191C248.924 158.616 249.133 157.989 249.186 157.362C249.238 156.735 249.133 156.108 248.872 155.533L246.782 156.735C246.886 157.048 246.886 157.362 246.834 157.676C246.782 157.989 246.625 158.25 246.468 158.512L246.468 158.512L246.468 158.512C246.259 158.773 246.05 159.034 245.737 159.243C245.319 159.557 244.848 159.766 244.378 159.818C243.908 159.87 243.438 159.766 242.967 159.557C242.512 159.355 242.106 159.006 241.749 158.511L247.879 153.913L247.409 153.286C246.834 152.502 246.259 151.927 245.632 151.562C245.005 151.144 244.378 150.935 243.751 150.83C243.072 150.726 242.497 150.778 241.87 150.987C241.243 151.196 240.668 151.457 240.145 151.875C239.309 152.502 238.787 153.234 238.421 154.07C238.055 154.906 238.003 155.794 238.16 156.735C238.317 157.676 238.735 158.564 239.414 159.452C240.093 160.393 240.877 161.02 241.713 161.438C242.549 161.856 243.438 162.013 244.326 161.908ZM240.734 157.125L244.848 154.018C244.535 153.652 244.221 153.338 243.803 153.182C243.385 153.025 243.019 152.92 242.549 152.973C242.131 153.025 241.713 153.182 241.347 153.495C240.929 153.809 240.616 154.174 240.459 154.645C240.302 155.063 240.25 155.533 240.302 156.003C240.348 156.418 240.516 156.791 240.734 157.125ZM236.696 158.25L234.971 159.87C234.762 159.713 234.553 159.609 234.292 159.557C234.031 159.504 233.77 159.504 233.456 159.557C233.142 159.609 232.881 159.766 232.568 160.027C232.15 160.341 231.836 160.706 231.732 161.124C231.575 161.542 231.627 161.856 231.836 162.169C232.045 162.431 232.254 162.535 232.568 162.587C232.881 162.587 233.299 162.483 233.822 162.274L235.546 161.49C236.487 161.072 237.323 160.863 238.002 160.968C238.681 161.072 239.256 161.386 239.727 162.013C240.145 162.535 240.354 163.162 240.354 163.789C240.354 164.416 240.145 165.096 239.779 165.723C239.413 166.35 238.838 166.977 238.107 167.499C237.062 168.283 236.016 168.701 235.024 168.754C234.031 168.806 233.195 168.44 232.463 167.761L234.292 166.089C234.658 166.402 235.076 166.559 235.546 166.559C235.964 166.559 236.435 166.35 236.905 165.984C237.375 165.618 237.689 165.2 237.845 164.782C238.002 164.364 237.95 163.998 237.741 163.737C237.532 163.476 237.323 163.371 237.009 163.319C236.696 163.319 236.33 163.424 235.86 163.633L234.135 164.416C233.195 164.887 232.359 165.043 231.627 164.939C230.895 164.834 230.321 164.469 229.85 163.842C229.432 163.319 229.223 162.744 229.223 162.117C229.223 161.49 229.38 160.863 229.746 160.288C230.112 159.661 230.634 159.086 231.313 158.564C232.306 157.78 233.299 157.414 234.188 157.414C235.233 157.31 236.016 157.623 236.696 158.25ZM226.768 175.547C227.395 175.39 227.97 175.129 228.492 174.711L228.542 174.667C228.94 174.319 229.291 174.012 229.642 173.561C229.903 173.143 230.06 172.777 230.112 172.411C230.164 172.046 230.164 171.68 230.112 171.366L230.164 171.314L231.053 172.516L233.038 171.053L228.701 165.252C228.231 164.678 227.813 164.26 227.29 164.051C226.768 163.789 226.298 163.685 225.775 163.737C225.252 163.789 224.73 163.894 224.26 164.103C223.789 164.312 223.319 164.573 222.901 164.887C222.274 165.357 221.804 165.827 221.438 166.402C221.072 166.977 220.811 167.552 220.759 168.179C220.706 168.806 220.759 169.433 221.02 170.06L223.11 168.91C223.005 168.544 223.005 168.126 223.11 167.708C223.214 167.29 223.528 166.872 224.051 166.507C224.521 166.141 224.991 165.984 225.409 166.036C225.827 166.036 226.193 166.298 226.507 166.716V166.768C226.663 166.925 226.663 167.134 226.611 167.343C226.559 167.552 226.35 167.813 226.089 168.074L226.088 168.075C225.774 168.388 225.409 168.754 224.939 169.172C224.573 169.537 224.207 169.903 223.894 170.321C223.58 170.739 223.319 171.157 223.162 171.575C223.005 171.993 222.953 172.411 223.005 172.882C223.058 173.352 223.267 173.822 223.633 174.293C224.051 174.867 224.573 175.233 225.096 175.442C225.618 175.651 226.193 175.703 226.768 175.547ZM228.754 171.784C228.545 172.15 228.283 172.516 227.865 172.829C227.447 173.143 227.029 173.3 226.611 173.352C226.193 173.404 225.827 173.195 225.566 172.829C225.409 172.568 225.305 172.307 225.305 172.046C225.305 171.732 225.409 171.471 225.566 171.209C225.775 170.896 225.984 170.635 226.245 170.373L226.663 169.955C226.742 169.877 226.82 169.786 226.898 169.694L226.898 169.694L226.899 169.694C226.977 169.603 227.055 169.511 227.134 169.433C227.206 169.337 227.277 169.252 227.344 169.173L227.344 169.173C227.423 169.08 227.495 168.995 227.552 168.91C227.58 168.868 227.608 168.83 227.634 168.795C227.705 168.698 227.761 168.621 227.761 168.544L228.545 169.59C228.806 169.903 228.91 170.217 228.963 170.635C229.015 171 228.91 171.419 228.754 171.784ZM220.706 180.563C219.818 181.243 218.929 181.608 218.041 181.713C217.153 181.817 216.264 181.661 215.428 181.243C214.592 180.825 213.808 180.197 213.129 179.257C212.45 178.369 212.032 177.48 211.875 176.54C211.718 175.599 211.77 174.711 212.136 173.875C212.502 173.039 213.024 172.307 213.86 171.68C214.383 171.262 214.958 171.001 215.585 170.792C216.212 170.583 216.787 170.53 217.466 170.635C218.145 170.739 218.72 170.948 219.347 171.366C219.974 171.784 220.549 172.307 221.124 173.091L221.594 173.718L215.514 178.312C215.872 178.809 216.279 179.159 216.735 179.361C217.205 179.57 217.675 179.675 218.145 179.623C218.616 179.57 219.086 179.361 219.504 179.048C219.818 178.839 220.027 178.578 220.236 178.316C220.392 178.055 220.549 177.794 220.601 177.48C220.654 177.167 220.654 176.853 220.549 176.54L222.639 175.338C222.901 175.913 223.005 176.54 222.953 177.167C222.901 177.794 222.692 178.421 222.326 178.996C221.96 179.57 221.385 180.041 220.706 180.563ZM218.616 173.822L214.501 176.929C214.283 176.596 214.116 176.222 214.069 175.808C214.017 175.338 214.069 174.867 214.226 174.449C214.383 173.979 214.697 173.613 215.115 173.3C215.48 172.986 215.898 172.829 216.316 172.777C216.787 172.725 217.153 172.829 217.571 172.986C217.989 173.143 218.302 173.457 218.616 173.822ZM214.906 184.691L206.232 173.143L204.194 174.658L212.868 186.207L214.906 184.691ZM207.642 190.439C206.754 191.119 205.866 191.485 204.977 191.589C204.089 191.694 203.201 191.537 202.365 191.119C201.528 190.701 200.745 190.074 200.065 189.133C199.386 188.245 198.968 187.356 198.811 186.416C198.654 185.475 198.707 184.587 199.072 183.751C199.438 182.915 199.961 182.183 200.797 181.556C201.319 181.138 201.894 180.877 202.521 180.668C203.148 180.459 203.723 180.406 204.402 180.511C205.03 180.615 205.657 180.824 206.284 181.243C206.911 181.608 207.486 182.183 208.06 182.967L208.531 183.594L202.401 188.191C202.758 188.687 203.164 189.035 203.619 189.238C204.089 189.447 204.559 189.551 205.03 189.499C205.5 189.447 205.97 189.238 206.388 188.924C206.702 188.715 206.911 188.454 207.12 188.193L207.12 188.192L207.12 188.192C207.277 187.931 207.433 187.67 207.486 187.356C207.538 187.043 207.538 186.729 207.433 186.416L209.523 185.214C209.785 185.789 209.889 186.416 209.837 187.043C209.785 187.67 209.576 188.297 209.21 188.872C208.844 189.342 208.322 189.917 207.642 190.439ZM205.5 183.699L201.385 186.805C201.167 186.472 201 186.099 200.954 185.684C200.901 185.214 200.954 184.744 201.11 184.326C201.267 183.855 201.581 183.489 201.999 183.176C202.365 182.862 202.73 182.706 203.201 182.653C203.671 182.601 204.037 182.706 204.455 182.862C204.873 183.019 205.186 183.333 205.5 183.699ZM197.766 197.598L191.234 188.924L193.22 187.409L194.317 188.872L194.422 188.82C194.213 188.193 194.161 187.618 194.37 187.043C194.526 186.468 194.892 185.998 195.363 185.632C195.415 185.58 195.48 185.541 195.545 185.501C195.611 185.462 195.676 185.423 195.728 185.371C195.885 185.266 195.99 185.214 196.094 185.162L197.505 187.043C197.462 187.065 197.409 187.086 197.348 187.112C197.262 187.147 197.157 187.191 197.035 187.252C196.875 187.332 196.715 187.442 196.579 187.536C196.537 187.565 196.497 187.593 196.46 187.618C196.094 187.879 195.833 188.245 195.624 188.611C195.467 188.976 195.363 189.394 195.415 189.812C195.467 190.23 195.624 190.596 195.885 190.962L199.7 196.031L197.766 197.598Z" fill="#171321"/>
<path d="M300.812 115.767C299.976 115.767 299.192 115.558 298.513 115.087C297.834 114.669 297.311 113.99 296.945 113.154C296.58 112.318 296.371 111.325 296.371 110.123C296.371 108.921 296.58 107.928 296.998 107.092C297.416 106.256 297.938 105.629 298.618 105.211C299.297 104.793 300.028 104.584 300.865 104.584C301.492 104.584 302.014 104.689 302.432 104.898C302.85 105.107 303.164 105.368 303.425 105.681C303.686 105.995 303.843 106.256 304 106.518H304.104L304.157 101.135H306.717L306.613 115.558H304.104V113.833H303.948C303.791 114.095 303.634 114.356 303.373 114.669C303.112 114.983 302.798 115.192 302.38 115.401C301.962 115.662 301.439 115.767 300.812 115.767ZM301.544 113.677C302.066 113.677 302.537 113.52 302.955 113.258C303.321 112.945 303.634 112.579 303.843 112.057C304.052 111.534 304.157 110.907 304.157 110.228C304.157 109.548 304.052 108.921 303.895 108.399C303.686 107.876 303.425 107.458 303.059 107.197C302.694 106.883 302.223 106.779 301.648 106.779C301.074 106.779 300.603 106.936 300.238 107.197C299.872 107.51 299.558 107.876 299.349 108.399C299.14 108.921 299.036 109.496 299.036 110.175C299.036 110.855 299.14 111.482 299.297 112.004C299.506 112.527 299.767 112.945 300.133 113.258C300.499 113.52 300.969 113.677 301.544 113.677Z" fill="#171321"/>
<path d="M313.772 115.871C312.675 115.871 311.734 115.61 310.95 115.192C310.166 114.774 309.539 114.095 309.121 113.259C308.703 112.422 308.494 111.43 308.494 110.28C308.494 109.183 308.703 108.19 309.173 107.354C309.591 106.518 310.219 105.838 310.95 105.368C311.734 104.898 312.622 104.689 313.667 104.689C314.347 104.689 314.974 104.793 315.549 105.002C316.123 105.211 316.646 105.577 317.116 105.995C317.587 106.413 317.952 107.04 318.214 107.719C318.475 108.399 318.579 109.235 318.579 110.175V110.959L309.696 110.907V109.183L316.123 109.235C316.123 108.765 316.019 108.294 315.81 107.928C315.601 107.563 315.34 107.249 314.974 107.04C314.608 106.831 314.19 106.727 313.667 106.727C313.145 106.727 312.675 106.831 312.309 107.092C311.891 107.354 311.629 107.667 311.368 108.085C311.159 108.503 311.055 108.921 311.002 109.444V110.959C311.002 111.586 311.107 112.109 311.316 112.579C311.525 113.05 311.838 113.363 312.257 113.624C312.675 113.886 313.145 113.99 313.72 113.99C314.085 113.99 314.451 113.938 314.713 113.833C315.026 113.729 315.287 113.572 315.496 113.363C315.705 113.154 315.862 112.893 316.019 112.579L318.423 112.84C318.266 113.468 318.005 114.042 317.534 114.46C317.116 114.931 316.594 115.296 315.914 115.558C315.34 115.715 314.608 115.871 313.772 115.871Z" fill="#171321"/>
<path d="M320.46 119.738L320.564 104.845H323.073V106.622H323.229C323.386 106.361 323.543 106.1 323.804 105.786C324.066 105.473 324.379 105.211 324.797 105.002C325.215 104.793 325.738 104.689 326.365 104.689C327.201 104.689 327.932 104.898 328.612 105.316C329.291 105.734 329.814 106.361 330.232 107.197C330.65 108.033 330.806 109.026 330.806 110.228C330.806 111.43 330.597 112.422 330.179 113.259C329.761 114.095 329.239 114.722 328.56 115.14C327.88 115.558 327.096 115.767 326.26 115.767C325.633 115.767 325.111 115.662 324.693 115.453C324.275 115.244 323.961 114.983 323.7 114.722C323.439 114.408 323.282 114.147 323.125 113.886H323.02L322.968 119.634L320.46 119.738ZM323.02 110.28C323.02 110.959 323.125 111.586 323.334 112.109C323.543 112.631 323.804 113.05 324.17 113.363C324.536 113.677 325.006 113.833 325.529 113.833C326.104 113.833 326.574 113.677 326.94 113.363C327.305 113.05 327.619 112.631 327.828 112.109C328.037 111.586 328.141 110.959 328.141 110.28C328.141 109.601 328.037 109.026 327.88 108.503C327.723 107.981 327.41 107.563 327.044 107.249C326.678 106.936 326.208 106.779 325.633 106.779C325.111 106.779 324.64 106.936 324.222 107.197C323.804 107.458 323.543 107.876 323.334 108.399C323.125 108.974 323.02 109.601 323.02 110.28Z" fill="#171321"/>
<path d="M335.301 101.344L335.197 115.767H332.636L332.741 101.344H335.301Z" fill="#171321"/>
<path d="M342.251 116.028C341.206 116.028 340.265 115.767 339.481 115.296C338.698 114.826 338.123 114.147 337.705 113.311C337.287 112.475 337.078 111.482 337.078 110.384C337.078 109.287 337.287 108.294 337.757 107.458C338.227 106.622 338.802 105.995 339.586 105.525C340.37 105.054 341.258 104.845 342.355 104.845C343.401 104.845 344.341 105.107 345.125 105.577C345.909 106.047 346.484 106.727 346.902 107.563C347.32 108.399 347.529 109.392 347.529 110.489C347.529 111.586 347.32 112.579 346.849 113.415C346.431 114.251 345.804 114.878 345.02 115.349C344.237 115.819 343.348 116.028 342.251 116.028ZM342.303 113.99C342.878 113.99 343.348 113.833 343.766 113.52C344.132 113.206 344.446 112.788 344.655 112.266C344.864 111.743 344.968 111.116 344.968 110.489C344.968 109.81 344.864 109.235 344.707 108.66C344.55 108.085 344.237 107.667 343.871 107.354C343.505 107.04 342.982 106.883 342.46 106.883C341.885 106.883 341.363 107.04 340.997 107.354C340.631 107.667 340.317 108.085 340.108 108.66C339.899 109.235 339.795 109.81 339.795 110.437C339.795 111.116 339.899 111.691 340.056 112.213C340.265 112.736 340.526 113.154 340.892 113.52C341.206 113.833 341.728 113.99 342.303 113.99Z" fill="#171321"/>
<path d="M350.298 119.895C349.932 119.895 349.618 119.843 349.357 119.79C349.096 119.738 348.835 119.686 348.678 119.581L349.305 117.596C349.671 117.7 349.984 117.752 350.298 117.752C350.611 117.752 350.873 117.648 351.082 117.491C351.291 117.334 351.5 117.021 351.656 116.603L351.865 116.028L347.999 104.95H350.716L353.172 113.154H353.276L355.837 105.002H358.554L354.165 117.125C353.956 117.7 353.694 118.17 353.329 118.588C352.963 119.006 352.597 119.32 352.074 119.529C351.552 119.79 350.977 119.895 350.298 119.895Z" fill="#171321"/>
<path d="M83.6396 166.611C82.0197 165.723 80.0862 165.252 77.787 165.252H69.8965V188.036H77.6302C79.9295 188.036 81.9152 187.565 83.5873 186.677C85.2595 185.789 86.5136 184.43 87.402 182.758C88.2903 181.033 88.7084 178.995 88.7084 176.644C88.7084 174.292 88.2903 172.255 87.402 170.53C86.5136 168.858 85.2595 167.552 83.6396 166.611ZM83.7964 181.033C83.2738 182.183 82.49 183.071 81.3926 183.646C80.3475 184.221 78.9889 184.534 77.4212 184.534H74.0246V168.858H77.5257C79.0934 168.858 80.3475 169.171 81.3926 169.746C82.4377 170.321 83.2216 171.209 83.7441 172.359C84.2667 173.509 84.5279 174.972 84.5279 176.696C84.5279 178.421 84.3712 179.832 83.7964 181.033Z" fill="#171321"/>
<path d="M105.273 172.829C104.542 172.15 103.706 171.627 102.765 171.262C101.824 170.948 100.832 170.739 99.7866 170.739C98.1667 170.739 96.7558 171.105 95.5016 171.836C94.2998 172.568 93.3592 173.613 92.6798 174.972C92.0005 176.33 91.687 177.846 91.687 179.623C91.687 181.399 92.0005 182.967 92.6798 184.273C93.3592 185.58 94.2998 186.625 95.5539 187.304C96.808 188.036 98.2711 188.401 99.9956 188.401C101.302 188.401 102.504 188.192 103.549 187.774C104.594 187.356 105.43 186.781 106.109 186.05C106.789 185.318 107.207 184.43 107.468 183.437L103.706 183.019C103.549 183.489 103.288 183.907 102.922 184.221C102.556 184.535 102.138 184.796 101.668 184.953C101.197 185.109 100.675 185.214 100.1 185.214C99.2117 185.214 98.4802 185.005 97.8008 184.639C97.1738 184.273 96.6512 183.698 96.2855 183.019C95.9197 182.34 95.7629 181.504 95.7629 180.563H107.677V179.309C107.677 177.794 107.468 176.539 107.05 175.442C106.632 174.345 106.005 173.509 105.273 172.829ZM95.7106 177.898C95.7629 177.219 95.9197 176.592 96.2332 176.017C96.599 175.39 97.0693 174.867 97.6964 174.449C98.3234 174.031 99.055 173.874 99.8911 173.874C100.675 173.874 101.354 174.031 101.929 174.397C102.504 174.763 102.974 175.233 103.288 175.808C103.601 176.383 103.758 177.114 103.81 177.898H95.7106Z" fill="#171321"/>
<path d="M117.605 183.698H117.396L113.477 170.948H109.192L115.254 188.088H119.696L125.81 170.948H121.525L117.605 183.698Z" fill="#171321"/>
<path d="M312.883 166.35C311.315 165.409 309.538 164.939 307.5 164.939C305.462 164.939 303.738 165.409 302.118 166.35C300.55 167.29 299.296 168.597 298.356 170.373C297.415 172.098 296.997 174.24 296.997 176.696C296.997 179.152 297.467 181.242 298.356 182.967C299.296 184.691 300.498 186.05 302.118 186.991C303.738 187.931 305.462 188.401 307.5 188.401C309.538 188.401 311.263 187.931 312.883 186.991C314.503 186.05 315.704 184.744 316.645 182.967C317.586 181.242 318.004 179.1 318.004 176.644C318.004 174.188 317.533 172.098 316.645 170.321C315.704 168.597 314.45 167.29 312.883 166.35ZM313.039 181.033C312.517 182.235 311.733 183.124 310.792 183.751C309.852 184.378 308.755 184.691 307.5 184.691C306.246 184.691 305.149 184.378 304.208 183.751C303.268 183.124 302.536 182.235 301.961 181.033C301.439 179.832 301.177 178.368 301.177 176.644C301.177 174.92 301.439 173.456 301.961 172.255C302.484 171.053 303.268 170.164 304.208 169.537C305.149 168.91 306.246 168.597 307.5 168.597C308.755 168.597 309.852 168.91 310.792 169.537C311.733 170.164 312.465 171.053 313.039 172.255C313.562 173.456 313.823 174.92 313.823 176.644C313.823 178.368 313.562 179.884 313.039 181.033Z" fill="#171321"/>
<path d="M334.412 171.732C333.367 171.053 332.165 170.739 330.859 170.739C329.866 170.739 329.03 170.896 328.403 171.262C327.775 171.575 327.253 171.993 326.887 172.464C326.521 172.934 326.208 173.404 325.999 173.77H325.79V170.948H321.818V194.463H325.842V185.371H325.999C326.208 185.789 326.521 186.207 326.887 186.677C327.253 187.147 327.775 187.513 328.455 187.879C329.082 188.192 329.918 188.349 330.911 188.349C332.269 188.349 333.471 187.983 334.516 187.304C335.561 186.625 336.398 185.632 337.025 184.273C337.652 182.967 337.965 181.347 337.965 179.466C337.965 177.585 337.652 175.965 337.025 174.658C336.293 173.404 335.457 172.411 334.412 171.732ZM333.315 182.392C333.001 183.228 332.531 183.907 331.956 184.378C331.381 184.848 330.597 185.109 329.709 185.109C328.873 185.109 328.141 184.9 327.514 184.43C326.939 183.96 326.469 183.333 326.156 182.497C325.842 181.66 325.685 180.72 325.685 179.57C325.685 178.473 325.842 177.48 326.156 176.696C326.469 175.86 326.939 175.233 327.514 174.815C328.141 174.345 328.821 174.136 329.709 174.136C330.597 174.136 331.381 174.345 331.956 174.815C332.583 175.285 333.001 175.912 333.315 176.748C333.628 177.585 333.785 178.525 333.785 179.57C333.785 180.615 333.628 181.556 333.315 182.392Z" fill="#171321"/>
<path d="M354.008 179.988C353.224 179.257 352.023 178.682 350.403 178.316L347.476 177.689C346.588 177.48 345.961 177.219 345.595 176.905C345.229 176.592 345.02 176.174 345.02 175.703C345.02 175.129 345.282 174.658 345.856 174.292C346.431 173.927 347.111 173.77 347.947 173.77C348.574 173.77 349.096 173.874 349.514 174.083C349.932 174.292 350.298 174.554 350.559 174.867C350.821 175.181 350.977 175.547 351.082 175.912L354.74 175.494C354.479 174.031 353.747 172.882 352.597 172.046C351.448 171.209 349.88 170.739 347.842 170.739C346.483 170.739 345.282 170.948 344.236 171.366C343.191 171.784 342.355 172.411 341.78 173.195C341.206 173.979 340.892 174.867 340.892 175.965C340.892 177.219 341.258 178.264 342.042 179.048C342.826 179.884 344.027 180.459 345.7 180.772L348.626 181.399C349.41 181.556 349.985 181.817 350.35 182.131C350.716 182.444 350.925 182.862 350.925 183.333C350.925 183.907 350.612 184.378 350.037 184.796C349.462 185.214 348.678 185.371 347.738 185.371C346.797 185.371 346.065 185.162 345.491 184.796C344.916 184.378 344.55 183.803 344.341 183.071L340.422 183.437C340.683 185.005 341.415 186.259 342.721 187.095C343.975 187.983 345.7 188.401 347.79 188.401C349.201 188.401 350.455 188.192 351.552 187.722C352.65 187.252 353.486 186.625 354.113 185.789C354.74 184.953 355.053 184.012 355.053 182.967C355.21 181.713 354.792 180.72 354.008 179.988Z" fill="#171321"/>
<path d="M199.02 71.0363C198.393 70.5138 197.661 70.0957 196.877 69.7299C196.093 69.3642 195.257 69.1029 194.369 68.8938L192.227 68.3713C191.756 68.2668 191.286 68.11 190.816 67.9532C190.345 67.7965 189.927 67.5875 189.562 67.3262C189.196 67.0649 188.882 66.8036 188.673 66.4378C188.464 66.072 188.36 65.654 188.36 65.1837C188.36 64.6089 188.516 64.0864 188.882 63.6683C189.196 63.198 189.666 62.8845 190.293 62.6232C190.92 62.3619 191.652 62.2574 192.488 62.2574C193.69 62.2574 194.735 62.5187 195.466 63.0935C196.25 63.6161 196.668 64.3999 196.773 65.3405H200.744C200.744 64.0341 200.378 62.9368 199.647 61.9439C198.968 60.9511 197.975 60.1672 196.773 59.5924C195.571 59.0176 194.108 58.7563 192.54 58.7563C190.92 58.7563 189.509 59.0176 188.255 59.5924C187.001 60.1672 186.008 60.9511 185.277 61.9439C184.545 62.9368 184.179 64.1386 184.179 65.4972C184.179 67.1172 184.702 68.4235 185.799 69.4164C186.897 70.4092 188.36 71.1408 190.241 71.6111L192.854 72.2904C193.69 72.4994 194.369 72.7085 194.996 73.022C195.623 73.2833 196.093 73.5968 196.407 74.0148C196.773 74.3806 196.93 74.9032 196.93 75.478C196.93 76.1051 196.721 76.6799 196.355 77.2024C195.989 77.6727 195.414 78.0908 194.735 78.352C194.056 78.6133 193.272 78.7701 192.383 78.7701C191.547 78.7701 190.763 78.6656 190.032 78.4043C189.353 78.143 188.778 77.7772 188.36 77.2024C187.942 76.6799 187.68 76.0006 187.628 75.2167H183.552C183.605 76.7321 184.023 78.0385 184.754 79.0836C185.486 80.1287 186.479 80.9648 187.785 81.4874C189.091 82.0622 190.607 82.3234 192.383 82.3234C194.212 82.3234 195.78 82.0622 197.034 81.4874C198.34 80.9125 199.281 80.1287 200.013 79.1359C200.692 78.143 201.058 76.9411 201.058 75.6348C201.058 74.6419 200.849 73.8058 200.483 73.0743C200.169 72.1859 199.647 71.5589 199.02 71.0363Z" fill="#171321"/>
<path d="M217.413 66.6467C216.681 65.9674 215.845 65.4449 214.904 65.0791C213.964 64.7655 212.971 64.5565 211.926 64.5565C210.306 64.5565 208.895 64.9223 207.641 65.6539C206.439 66.3854 205.498 67.4305 204.819 68.7892C204.14 70.1478 203.826 71.6632 203.826 73.4399C203.826 75.2166 204.14 76.7842 204.819 78.0906C205.498 79.397 206.439 80.4421 207.693 81.1214C208.947 81.853 210.41 82.2188 212.135 82.2188C213.441 82.2188 214.643 82.0097 215.688 81.5917C216.733 81.1737 217.569 80.5989 218.249 79.8673C218.928 79.1357 219.346 78.2474 219.607 77.2545L215.845 76.8365C215.688 77.3068 215.427 77.7248 215.061 78.0384C214.695 78.3519 214.277 78.6132 213.807 78.7699C213.337 78.9267 212.814 79.0312 212.239 79.0312C211.351 79.0312 210.619 78.8222 209.94 78.4564C209.313 78.0906 208.79 77.5158 208.425 76.8365C208.059 76.1572 207.902 75.3211 207.902 74.3805H219.764V73.1264C219.764 71.611 219.555 70.3568 219.137 69.2595C218.719 68.2666 218.144 67.326 217.413 66.6467ZM207.85 71.7155C207.902 71.0362 208.059 70.4091 208.372 69.8343C208.738 69.2072 209.208 68.6847 209.836 68.2666C210.463 67.8486 211.194 67.6918 212.03 67.6918C212.814 67.6918 213.493 67.8486 214.068 68.2144C214.643 68.5802 215.113 69.0505 215.427 69.6253C215.74 70.2523 215.897 70.9317 215.949 71.7155H207.85Z" fill="#171321"/>
<path d="M228.491 68.4757C229.118 68.0576 229.85 67.7963 230.686 67.7963C231.679 67.7963 232.41 68.0576 233.037 68.6324C233.665 69.2072 233.978 69.8865 234.135 70.7226H238.002C237.897 69.4685 237.531 68.4234 236.904 67.4828C236.277 66.5422 235.389 65.8629 234.344 65.3403C233.247 64.8178 232.045 64.5565 230.634 64.5565C228.962 64.5565 227.498 64.9223 226.297 65.6539C225.095 66.3854 224.154 67.4305 223.475 68.7892C222.795 70.1478 222.482 71.6632 222.482 73.3877C222.482 75.1121 222.795 76.6275 223.475 77.9861C224.154 79.2925 225.095 80.3376 226.297 81.1214C227.498 81.9053 228.962 82.271 230.686 82.271C232.097 82.271 233.351 82.0098 234.448 81.4872C235.493 80.9647 236.33 80.2331 236.957 79.2925C237.584 78.3519 237.949 77.3068 238.002 76.1049H234.135C234.03 76.732 233.821 77.2545 233.456 77.6726C233.142 78.0906 232.724 78.4564 232.254 78.6654C231.783 78.8744 231.261 78.9789 230.634 78.9789C229.798 78.9789 229.066 78.7699 228.439 78.2996C227.812 77.8293 227.342 77.2023 226.976 76.3662C226.61 75.5301 226.453 74.5373 226.453 73.3877C226.453 72.238 226.61 71.2452 226.976 70.4091C227.394 69.573 227.864 68.946 228.491 68.4757Z" fill="#171321"/>
<path d="M266.271 229.108L272.49 220.277L274.476 221.688L273.43 223.203L273.535 223.256C274.058 222.89 274.685 222.681 275.312 222.733C275.939 222.733 276.566 222.942 277.141 223.36C277.715 223.778 278.133 224.301 278.342 224.876C278.551 225.45 278.551 226.077 278.395 226.652L278.499 226.704C279.022 226.339 279.649 226.182 280.328 226.234C281.007 226.286 281.635 226.495 282.314 226.966C283.15 227.541 283.62 228.272 283.777 229.16C283.934 230.049 283.672 230.989 282.941 231.982L278.76 237.939L276.67 236.476L280.642 230.833C281.007 230.258 281.164 229.788 281.06 229.317C280.955 228.847 280.694 228.481 280.276 228.168C279.753 227.802 279.283 227.697 278.76 227.802C278.238 227.906 277.82 228.22 277.454 228.742L273.587 234.281L271.549 232.818L275.573 227.123C275.886 226.652 275.991 226.182 275.939 225.712C275.886 225.241 275.573 224.876 275.155 224.562C274.841 224.353 274.528 224.248 274.162 224.196C273.796 224.196 273.483 224.249 273.117 224.405C272.803 224.562 272.49 224.823 272.229 225.189L268.414 230.571L266.271 229.108Z" fill="#171321"/>
<path d="M284.978 242.068C284.09 241.493 283.411 240.813 282.993 240.03C282.575 239.246 282.418 238.357 282.47 237.417C282.522 236.476 282.888 235.536 283.463 234.595C284.038 233.654 284.769 232.923 285.553 232.4C286.337 231.93 287.225 231.669 288.114 231.669C289.002 231.669 289.943 231.982 290.831 232.505C291.719 233.08 292.399 233.759 292.817 234.543C293.235 235.327 293.391 236.215 293.339 237.156C293.235 238.096 292.921 239.037 292.346 239.977C291.772 240.918 291.04 241.65 290.256 242.12C289.472 242.59 288.584 242.851 287.696 242.851C286.755 242.904 285.867 242.59 284.978 242.068ZM286.076 240.291C286.546 240.604 287.069 240.709 287.539 240.657C288.009 240.604 288.48 240.395 288.95 240.03C289.42 239.664 289.786 239.194 290.152 238.671C290.517 238.096 290.726 237.521 290.831 236.999C290.935 236.424 290.936 235.901 290.779 235.431C290.622 234.961 290.308 234.595 289.786 234.282C289.263 233.968 288.793 233.863 288.27 233.916C287.748 233.968 287.278 234.177 286.86 234.543C286.389 234.909 286.023 235.379 285.658 235.901C285.292 236.476 285.083 236.999 284.978 237.574C284.874 238.148 284.874 238.619 285.031 239.141C285.187 239.664 285.553 240.03 286.076 240.291Z" fill="#171321"/>
<path d="M296.892 241.336L294.018 246.98L291.719 245.83L296.631 236.163L298.826 237.26L297.99 238.88L298.094 238.932C298.565 238.514 299.139 238.253 299.819 238.201C300.498 238.148 301.177 238.253 301.857 238.619C302.536 238.932 303.059 239.403 303.372 239.925C303.738 240.448 303.895 241.075 303.895 241.754C303.895 242.433 303.686 243.165 303.32 243.949L300.185 250.115L297.885 248.965L300.812 243.165C301.125 242.538 301.23 241.911 301.073 241.388C300.916 240.866 300.55 240.448 299.976 240.134C299.558 239.925 299.192 239.821 298.774 239.873C298.356 239.925 297.99 240.03 297.676 240.239C297.415 240.552 297.102 240.866 296.892 241.336Z" fill="#171321"/>
<path d="M303.111 251.317L307.082 241.232L309.434 242.172L305.462 252.257L303.111 251.317ZM308.859 240.291C308.493 240.134 308.232 239.873 308.023 239.507C307.866 239.141 307.814 238.776 307.971 238.462C308.127 238.096 308.389 237.835 308.754 237.73C309.12 237.574 309.486 237.574 309.852 237.73C310.218 237.887 310.531 238.148 310.688 238.514C310.845 238.88 310.897 239.246 310.74 239.612C310.583 239.977 310.322 240.239 309.956 240.343C309.59 240.448 309.225 240.448 308.859 240.291Z" fill="#171321"/>
<path d="M312.778 240.604L315.234 241.284L312.465 251.055C312.36 251.369 312.36 251.63 312.412 251.839C312.465 252.048 312.569 252.205 312.726 252.31C312.883 252.414 313.04 252.519 313.249 252.571C313.405 252.623 313.562 252.623 313.667 252.675C313.823 252.675 313.928 252.675 313.98 252.675L313.823 254.713C313.667 254.713 313.458 254.713 313.196 254.713C312.935 254.713 312.621 254.661 312.308 254.557C311.681 254.4 311.158 254.139 310.74 253.825C310.322 253.459 310.009 253.041 309.852 252.519C309.695 251.996 309.695 251.421 309.904 250.794L312.778 240.604ZM316.593 244.367L316.07 246.248L310.061 244.524L310.584 242.642L316.593 244.367Z" fill="#171321"/>
<path d="M321.923 256.02C320.878 256.02 319.938 255.758 319.206 255.288C318.422 254.818 317.847 254.139 317.429 253.302C317.011 252.466 316.802 251.474 316.855 250.376C316.907 249.279 317.116 248.286 317.534 247.45C317.952 246.614 318.579 245.987 319.363 245.516C320.147 245.046 321.087 244.837 322.132 244.889C323.177 244.889 324.118 245.151 324.85 245.621C325.633 246.091 326.208 246.771 326.626 247.607C327.044 248.443 327.253 249.436 327.201 250.585C327.149 251.735 326.94 252.675 326.522 253.511C326.104 254.348 325.477 254.975 324.693 255.445C323.909 255.811 322.968 256.02 321.923 256.02ZM321.976 253.982C322.55 253.982 323.021 253.825 323.439 253.511C323.805 253.198 324.118 252.78 324.327 252.257C324.536 251.735 324.641 251.108 324.641 250.481C324.641 249.801 324.588 249.227 324.379 248.652C324.223 248.129 323.909 247.659 323.543 247.345C323.177 247.032 322.707 246.823 322.132 246.823C321.558 246.823 321.035 246.98 320.669 247.293C320.251 247.607 319.99 248.025 319.781 248.547C319.572 249.07 319.467 249.697 319.467 250.324C319.467 251.003 319.52 251.578 319.729 252.101C319.885 252.623 320.199 253.093 320.565 253.407C320.93 253.773 321.401 253.93 321.976 253.982Z" fill="#171321"/>
<path d="M330.128 255.549L328.926 244.785L331.382 244.524L331.591 246.3H331.695C331.8 245.673 332.113 245.151 332.531 244.733C332.949 244.314 333.524 244.105 334.099 244.053C334.256 244.053 334.413 244.001 334.569 244.001C334.726 244.001 334.883 244.001 334.987 244.001L335.249 246.352C335.144 246.352 334.987 246.3 334.726 246.3C334.465 246.3 334.256 246.3 334.047 246.352C333.576 246.405 333.158 246.561 332.845 246.77C332.531 246.98 332.218 247.293 332.061 247.711C331.904 248.129 331.852 248.495 331.904 248.965L332.584 255.288L330.128 255.549Z" fill="#171321"/>
<path d="M384.734 152.241C384.368 151.248 384.263 150.307 384.42 149.419C384.577 148.531 384.995 147.747 385.622 147.068C386.249 146.388 387.085 145.813 388.13 145.448C389.175 145.082 390.168 144.925 391.109 145.03C392.049 145.134 392.886 145.448 393.565 146.022C394.296 146.597 394.819 147.381 395.185 148.374C395.551 149.367 395.655 150.307 395.498 151.196C395.342 152.084 394.923 152.868 394.296 153.547C393.669 154.226 392.833 154.801 391.788 155.167C390.743 155.533 389.75 155.69 388.81 155.585C387.869 155.481 387.033 155.167 386.354 154.592C385.674 154.017 385.099 153.234 384.734 152.241ZM386.615 151.561C386.824 152.084 387.137 152.502 387.555 152.763C387.974 153.025 388.496 153.129 389.071 153.129C389.646 153.129 390.221 153.025 390.848 152.763C391.475 152.554 391.997 152.241 392.415 151.875C392.833 151.509 393.147 151.091 393.304 150.621C393.46 150.151 393.46 149.628 393.251 149.105C393.042 148.531 392.729 148.165 392.311 147.904C391.893 147.642 391.37 147.538 390.795 147.538C390.221 147.538 389.646 147.642 389.019 147.904C388.392 148.113 387.869 148.426 387.451 148.792C387.033 149.158 386.719 149.576 386.563 150.046C386.406 150.464 386.406 150.987 386.615 151.561Z" fill="#171321"/>
<path d="M383.114 159.191L397.693 156.055L398.216 158.511L396.439 158.877L396.492 159.034C396.753 159.086 397.066 159.243 397.432 159.4C397.798 159.557 398.112 159.818 398.373 160.184C398.686 160.549 398.895 161.02 399 161.647C399.157 162.483 399.104 163.267 398.843 163.998C398.582 164.73 398.059 165.409 397.328 165.984C396.596 166.559 395.656 166.977 394.454 167.186C393.304 167.447 392.259 167.447 391.371 167.238C390.482 167.029 389.751 166.663 389.176 166.088C388.601 165.514 388.235 164.834 388.079 163.998C387.922 163.371 387.922 162.849 388.079 162.431C388.235 162.013 388.392 161.594 388.601 161.333C388.81 161.02 389.071 160.758 389.28 160.602V160.497L383.637 161.699L383.114 159.191ZM392.886 159.661C392.207 159.818 391.632 160.027 391.162 160.34C390.691 160.654 390.325 161.02 390.116 161.438C389.907 161.856 389.855 162.326 389.96 162.901C390.064 163.476 390.325 163.894 390.691 164.207C391.057 164.521 391.527 164.73 392.102 164.782C392.677 164.887 393.252 164.834 393.931 164.678C394.61 164.521 395.133 164.312 395.603 163.998C396.074 163.685 396.387 163.319 396.596 162.901C396.805 162.483 396.857 161.96 396.753 161.438C396.648 160.915 396.387 160.497 396.021 160.184C395.656 159.87 395.185 159.661 394.663 159.609C394.192 159.452 393.565 159.504 392.886 159.661Z" fill="#171321"/>
<path d="M389.489 174.502C389.437 173.404 389.594 172.464 389.96 171.628C390.378 170.791 390.952 170.164 391.736 169.694C392.52 169.224 393.513 168.91 394.61 168.858C395.708 168.753 396.701 168.91 397.589 169.276C398.477 169.642 399.157 170.164 399.679 170.896C400.202 171.627 400.515 172.516 400.567 173.561C400.62 174.24 400.567 174.867 400.358 175.494C400.202 176.121 399.888 176.644 399.47 177.167C399.052 177.637 398.529 178.055 397.85 178.368C397.171 178.682 396.387 178.891 395.446 178.943L394.663 178.995L394.035 170.164L395.76 170.06L396.23 176.487C396.7 176.435 397.171 176.33 397.537 176.069C397.902 175.808 398.164 175.547 398.373 175.129C398.582 174.763 398.634 174.292 398.634 173.822C398.582 173.3 398.425 172.829 398.164 172.464C397.902 172.098 397.537 171.784 397.119 171.628C396.7 171.418 396.23 171.366 395.76 171.366L394.245 171.471C393.617 171.523 393.095 171.68 392.677 171.941C392.259 172.202 391.945 172.568 391.736 172.986C391.527 173.404 391.423 173.927 391.475 174.449C391.527 174.815 391.579 175.129 391.684 175.442C391.788 175.756 391.998 175.965 392.207 176.174C392.416 176.383 392.677 176.539 392.99 176.592L392.886 178.995C392.259 178.891 391.684 178.63 391.161 178.264C390.639 177.898 390.273 177.376 389.96 176.749C389.751 176.069 389.594 175.338 389.489 174.502Z" fill="#171321"/>
<path d="M389.959 180.824L400.776 181.295L400.672 183.751L398.843 183.698V183.803C399.47 184.012 399.94 184.378 400.254 184.9C400.567 185.371 400.724 185.945 400.672 186.573C400.672 186.729 400.672 186.886 400.62 187.043C400.62 187.2 400.567 187.356 400.567 187.461L398.216 187.356C398.268 187.252 398.32 187.095 398.32 186.834C398.373 186.625 398.373 186.364 398.373 186.155C398.373 185.684 398.32 185.266 398.111 184.9C397.902 184.535 397.641 184.221 397.327 184.012C397.014 183.803 396.596 183.646 396.126 183.646L389.75 183.385L389.959 180.824Z" fill="#171321"/>
<path d="M388.967 191.014C389.071 190.335 389.28 189.76 389.594 189.238C389.908 188.715 390.326 188.349 390.9 188.14C391.423 187.879 392.05 187.827 392.729 187.931C393.356 188.036 393.827 188.192 394.192 188.506C394.558 188.767 394.82 189.133 394.976 189.551C395.133 189.969 395.29 190.439 395.29 190.962C395.342 191.485 395.342 192.007 395.342 192.53C395.29 193.157 395.29 193.679 395.29 194.097C395.29 194.515 395.342 194.777 395.394 194.986C395.499 195.195 395.656 195.299 395.865 195.351H395.917C396.439 195.456 396.857 195.351 397.223 195.09C397.537 194.829 397.798 194.411 397.85 193.836C397.955 193.209 397.903 192.686 397.694 192.321C397.485 191.903 397.223 191.641 396.857 191.432L397.537 189.133C398.164 189.394 398.634 189.812 399.052 190.283C399.47 190.753 399.679 191.328 399.784 192.007C399.888 192.634 399.941 193.366 399.784 194.097C399.679 194.62 399.575 195.142 399.366 195.613C399.157 196.083 398.895 196.553 398.53 196.919C398.164 197.285 397.746 197.598 397.223 197.755C396.701 197.964 396.074 197.964 395.394 197.86L388.235 196.762L388.601 194.359L390.064 194.568V194.463C389.803 194.254 389.542 193.993 389.333 193.679C389.124 193.366 388.967 193 388.862 192.53C388.862 192.059 388.862 191.589 388.967 191.014ZM390.691 191.955C390.639 192.477 390.639 192.895 390.796 193.314C390.953 193.732 391.162 194.045 391.475 194.306C391.789 194.568 392.102 194.724 392.52 194.777L393.774 194.986C393.722 194.881 393.67 194.777 393.67 194.568C393.618 194.359 393.618 194.15 393.618 193.941C393.618 193.679 393.618 193.47 393.618 193.209C393.618 193 393.618 192.791 393.618 192.582C393.618 192.216 393.618 191.85 393.513 191.537C393.461 191.223 393.304 190.962 393.147 190.753C392.991 190.544 392.729 190.439 392.364 190.387C391.893 190.335 391.527 190.439 391.214 190.753C390.9 191.067 390.796 191.432 390.691 191.955Z" fill="#171321"/>
<path d="M400.619 202.51L399.94 204.966L390.116 202.354C389.802 202.249 389.541 202.249 389.332 202.301C389.123 202.354 388.966 202.458 388.862 202.615C388.757 202.772 388.653 202.928 388.6 203.137C388.548 203.294 388.548 203.451 388.496 203.555C388.496 203.712 388.496 203.817 388.496 203.869L386.458 203.764C386.458 203.608 386.458 203.399 386.458 203.137C386.458 202.876 386.51 202.563 386.615 202.197C386.772 201.57 386.981 201.047 387.346 200.629C387.712 200.211 388.13 199.898 388.6 199.689C389.123 199.532 389.698 199.532 390.325 199.689L400.619 202.51ZM396.909 206.377L394.976 205.855L396.596 199.845L398.529 200.368L396.909 206.377Z" fill="#171321"/>
<path d="M384.316 208.99C384.681 207.997 385.256 207.161 385.988 206.639C386.719 206.064 387.503 205.75 388.444 205.646C389.384 205.541 390.377 205.698 391.422 206.116C392.467 206.534 393.303 207.057 393.931 207.788C394.558 208.467 394.976 209.304 395.132 210.192C395.289 211.08 395.185 212.021 394.819 212.961C394.558 213.588 394.244 214.111 393.826 214.634C393.408 215.156 392.938 215.47 392.311 215.731C391.736 215.992 391.056 216.149 390.325 216.149C389.593 216.149 388.757 215.992 387.869 215.626L387.137 215.365L390.325 207.109L391.945 207.736L389.646 213.745C390.116 213.902 390.534 213.954 391.004 213.902C391.422 213.85 391.84 213.693 392.154 213.432C392.467 213.17 392.729 212.805 392.938 212.334C393.147 211.864 393.199 211.394 393.094 210.923C392.99 210.453 392.781 210.035 392.52 209.722C392.206 209.356 391.84 209.095 391.37 208.938L389.959 208.415C389.384 208.206 388.809 208.102 388.339 208.154C387.817 208.206 387.399 208.363 387.033 208.676C386.667 208.99 386.353 209.408 386.197 209.878C386.04 210.244 385.988 210.558 385.988 210.871C385.988 211.185 386.04 211.498 386.144 211.76C386.249 212.021 386.458 212.282 386.667 212.491L385.57 214.634C385.047 214.268 384.629 213.797 384.368 213.223C384.107 212.648 383.95 212.021 383.95 211.342C383.845 210.505 384.002 209.774 384.316 208.99Z" fill="#171321"/>
<path d="M109.559 247.554C109.454 247.084 109.298 246.666 109.036 246.3C108.775 245.934 108.462 245.725 108.044 245.569C107.626 245.412 107.208 245.36 106.737 245.464C106.215 245.569 105.797 245.725 105.431 246.039C105.065 246.352 104.856 246.718 104.699 247.189C104.542 247.554 104.542 247.972 104.595 248.39L109.559 247.554Z" fill="#CEB3EF"/>
<path d="M98.1672 113.363C98.533 113.677 99.0033 113.833 99.5781 113.833C100.101 113.833 100.571 113.677 100.937 113.415C101.303 113.102 101.616 112.736 101.825 112.213C102.034 111.691 102.139 111.064 102.139 110.384C102.139 109.705 102.034 109.078 101.877 108.556C101.668 108.033 101.407 107.615 101.041 107.354C100.675 107.04 100.205 106.936 99.6303 106.936C99.0555 106.936 98.5853 107.092 98.2195 107.354C97.8537 107.667 97.5401 108.033 97.3311 108.556C97.1221 109.078 97.0176 109.653 97.0176 110.332C97.0176 111.012 97.1221 111.639 97.2789 112.161C97.4879 112.684 97.8014 113.102 98.1672 113.363Z" fill="#CEB3EF"/>
<path d="M120.271 217.194C112.798 222.263 103.81 225.189 94.091 225.189C84.3715 225.189 75.0701 222.106 67.4931 216.881L72.196 250.376L40.0068 254.922C45.5459 258.842 51.503 262.186 57.8781 264.851C69.0085 269.502 81.2362 272.114 94.0387 272.114C114.941 272.114 134.223 265.269 149.795 253.721L166.882 240.814L171.481 208.102L138.508 203.451L120.271 217.194ZM100.571 255.288C100.309 255.34 99.9958 255.393 99.63 255.393C99.0029 255.445 98.4281 255.34 97.9056 255.131C97.383 254.922 96.965 254.609 96.6515 254.191C96.338 253.773 96.1812 253.198 96.1812 252.519L96.0244 246.509L94.509 246.562L94.4568 244.576L95.9721 244.524L95.9199 241.911L98.4804 241.859L98.5327 244.471L100.675 244.419L100.727 246.405L98.5849 246.457L98.7417 252.048C98.7417 252.414 98.7939 252.675 98.8985 252.832C99.003 252.989 99.1597 253.146 99.3165 253.198C99.4733 253.25 99.6823 253.303 99.8913 253.303C100.048 253.303 100.205 253.303 100.309 253.25C100.466 253.198 100.518 253.198 100.623 253.198L101.093 255.184C100.989 255.184 100.832 255.236 100.571 255.288ZM111.858 252.466C111.544 252.989 111.074 253.459 110.447 253.825C109.82 254.191 109.14 254.452 108.304 254.557C107.259 254.713 106.266 254.661 105.43 254.348C104.594 254.034 103.863 253.512 103.34 252.728C102.818 251.944 102.4 251.056 102.243 249.906C102.086 248.809 102.086 247.816 102.4 246.927C102.661 246.039 103.183 245.255 103.863 244.68C104.542 244.106 105.378 243.688 106.423 243.531C107.103 243.426 107.73 243.426 108.357 243.531C108.984 243.635 109.558 243.897 110.081 244.262C110.604 244.628 111.074 245.151 111.44 245.778C111.805 246.405 112.067 247.189 112.224 248.129L112.328 248.913L104.908 250.167C105.012 250.742 105.221 251.265 105.483 251.63C105.796 252.048 106.162 252.31 106.58 252.466C107.05 252.623 107.521 252.675 108.095 252.571C108.461 252.519 108.775 252.414 109.088 252.257C109.402 252.101 109.611 251.892 109.768 251.683C109.977 251.421 110.081 251.16 110.133 250.847L112.537 250.742C112.38 251.317 112.224 251.892 111.858 252.466ZM123.406 248.704C123.197 249.331 122.831 249.854 122.257 250.376C121.682 250.899 121.002 251.265 120.114 251.578C118.86 251.996 117.763 252.101 116.822 251.787C115.881 251.474 115.15 250.951 114.732 250.063L117.031 249.018C117.292 249.436 117.658 249.697 118.076 249.854C118.494 249.958 119.017 249.958 119.539 249.749C120.114 249.54 120.532 249.279 120.793 248.913C121.055 248.547 121.159 248.234 121.002 247.868C120.898 247.554 120.689 247.345 120.428 247.241C120.114 247.136 119.748 247.084 119.226 247.136L117.345 247.345C116.299 247.45 115.463 247.345 114.784 247.032C114.157 246.718 113.687 246.144 113.478 245.412C113.269 244.785 113.269 244.158 113.425 243.583C113.634 243.008 114 242.486 114.523 242.015C115.045 241.545 115.725 241.179 116.561 240.918C117.763 240.5 118.808 240.448 119.644 240.709C120.48 240.97 121.159 241.545 121.629 242.329L119.487 243.322C119.33 243.113 119.173 242.956 118.964 242.799C118.755 242.642 118.494 242.59 118.181 242.538C117.867 242.486 117.554 242.538 117.188 242.695C116.665 242.851 116.299 243.113 116.038 243.426C115.777 243.74 115.672 244.106 115.829 244.419C115.934 244.733 116.143 244.942 116.404 245.046C116.717 245.151 117.135 245.203 117.658 245.151L119.539 244.942C120.584 244.837 121.42 244.889 122.048 245.203C122.675 245.517 123.093 245.987 123.354 246.771C123.615 247.45 123.615 248.077 123.406 248.704ZM131.506 246.614C131.297 246.771 131.035 246.927 130.722 247.084C130.147 247.398 129.572 247.502 129.05 247.554C128.475 247.554 128.005 247.45 127.534 247.189C127.064 246.927 126.698 246.457 126.437 245.83L123.876 240.395L122.466 241.023L121.629 239.246L123.04 238.619L121.943 236.267L124.242 235.17L125.34 237.521L127.273 236.633L128.109 238.41L126.176 239.298L128.527 244.367C128.684 244.68 128.841 244.889 128.997 244.994C129.154 245.098 129.363 245.151 129.52 245.151C129.729 245.151 129.886 245.098 130.095 244.994C130.252 244.942 130.356 244.837 130.461 244.785C130.565 244.733 130.67 244.628 130.722 244.576L131.976 246.196C131.871 246.353 131.715 246.457 131.506 246.614Z" fill="#CEB3EF"/>
<path d="M114.21 109.392C114.21 108.921 114.105 108.451 113.896 108.085C113.687 107.719 113.426 107.406 113.06 107.197C112.694 106.988 112.276 106.883 111.754 106.883C111.231 106.883 110.761 106.988 110.395 107.249C109.977 107.51 109.716 107.824 109.455 108.242C109.246 108.608 109.141 108.974 109.141 109.444L114.21 109.392Z" fill="#CEB3EF"/>
<path d="M30.5484 191.119C30.1827 190.805 29.7124 190.596 29.1376 190.492C28.5628 190.387 27.9879 190.439 27.3086 190.544C26.6293 190.648 26.1068 190.858 25.5842 191.171C25.1139 191.485 24.7481 191.798 24.5391 192.268C24.3301 192.686 24.2778 193.209 24.3823 193.732C24.4868 194.254 24.6959 194.672 25.0616 195.038C25.4274 195.351 25.8455 195.56 26.4203 195.665C26.9951 195.77 27.5699 195.717 28.2492 195.613C28.9285 195.456 29.5033 195.247 29.9736 194.986C30.4439 194.672 30.8097 194.306 31.0187 193.888C31.2278 193.47 31.28 193 31.1755 192.425C31.1233 191.85 30.9142 191.432 30.5484 191.119Z" fill="#CEB3EF"/>
<path d="M24.9051 159.87C25.1141 160.288 25.4277 160.654 25.898 160.967C26.3683 161.281 26.9431 161.49 27.5701 161.647C28.2494 161.804 28.8243 161.804 29.3991 161.751C29.9739 161.699 30.4442 161.49 30.8099 161.176C31.1757 160.863 31.437 160.445 31.5415 159.87C31.646 159.348 31.5938 158.877 31.3848 158.407C31.1757 157.989 30.8622 157.623 30.3397 157.31C29.8171 156.996 29.2946 156.787 28.6152 156.63C27.9359 156.474 27.3089 156.474 26.7863 156.526C26.2638 156.63 25.7935 156.787 25.4277 157.101C25.0619 157.414 24.8529 157.832 24.6961 158.355C24.6438 158.929 24.6961 159.452 24.9051 159.87Z" fill="#CEB3EF"/>
<path d="M61.1703 211.603C52.6004 203.085 47.2704 191.328 47.2704 178.264C47.2704 162.64 54.8996 148.792 66.6048 140.274L33.5795 135.624L38.178 102.964C15.2379 120.052 0.397461 147.433 0.397461 178.264C0.397461 207.109 13.409 232.923 33.893 250.115L65.9777 245.621L61.1703 211.603ZM17.9552 165.305L32.3254 166.872L32.0641 169.433L17.6939 167.865L17.9552 165.305ZM29.3991 179.988C29.1901 179.623 28.9288 179.361 28.5108 179.152C28.145 178.943 27.6747 178.839 27.0999 178.891L20.8292 179.205L20.7247 176.644L31.5415 176.122L31.6461 178.578L29.7126 178.682V178.787C30.3397 178.996 30.8622 179.361 31.2803 179.936C31.6983 180.459 31.9073 181.138 31.9596 181.974C32.0119 182.706 31.8551 183.333 31.5938 183.855C31.3325 184.378 30.8622 184.848 30.2874 185.214C29.7126 185.527 28.9811 185.736 28.0927 185.789L21.195 186.102L21.0905 183.542L27.5702 183.228C28.2495 183.176 28.772 182.967 29.1901 182.601C29.5559 182.183 29.7649 181.713 29.7126 181.086C29.7126 180.72 29.6081 180.354 29.3991 179.988ZM20.9337 173.561L21.0383 171.001L31.8551 171.575L31.7506 174.136L20.9337 173.561ZM18.0075 173.613C17.6417 173.613 17.3281 173.457 17.0669 173.143C16.8056 172.829 16.7011 172.464 16.7011 172.098C16.7011 171.68 16.8578 171.366 17.1714 171.053C17.4326 170.791 17.7984 170.635 18.1642 170.687C18.53 170.687 18.8435 170.844 19.1048 171.157C19.3661 171.471 19.4706 171.837 19.4706 172.202C19.4706 172.62 19.3138 172.934 19.0003 173.247C18.6868 173.509 18.3732 173.613 18.0075 173.613ZM19.8886 199.741L19.4184 197.233L24.6961 196.188V196.083C24.4349 195.979 24.1213 195.874 23.7555 195.717C23.442 195.56 23.1285 195.247 22.8149 194.933C22.5014 194.568 22.3446 194.097 22.1879 193.47C22.0311 192.634 22.0834 191.85 22.3969 191.119C22.7104 190.387 23.1807 189.708 23.9645 189.185C24.6961 188.663 25.689 188.245 26.8386 188.036C27.9882 187.827 29.0333 187.827 29.9216 188.036C30.81 188.245 31.5416 188.663 32.1164 189.238C32.6912 189.812 33.057 190.544 33.2137 191.38C33.3182 192.007 33.3182 192.53 33.2137 192.948C33.1092 193.366 32.9002 193.784 32.6389 194.045C32.3776 194.359 32.1686 194.568 31.9073 194.777L31.9596 194.933L33.6318 194.62L34.1021 197.076L19.8886 199.741ZM33.9975 157.78L32.3254 157.414L32.2731 157.571C32.4822 157.78 32.7434 157.989 32.9524 158.303C33.1615 158.616 33.3705 158.982 33.475 159.4C33.5795 159.818 33.5795 160.393 33.475 160.968C33.3182 161.804 32.9002 162.483 32.3776 163.058C31.8028 163.633 31.0713 163.998 30.1829 164.207C29.2946 164.416 28.2495 164.416 27.0999 164.155C25.898 163.894 24.9574 163.476 24.2258 162.953C23.4942 162.378 23.024 161.751 22.7104 160.968C22.4491 160.236 22.3969 159.452 22.5537 158.616C22.7104 157.989 22.9194 157.519 23.1807 157.153C23.4942 156.787 23.8078 156.526 24.1213 156.369C24.4349 156.212 24.8006 156.056 25.0619 156.003V155.899L19.7841 154.749L20.3067 152.241L34.4156 155.272L33.9975 157.78Z" fill="#CEB3EF"/>
<path d="M86.4094 113.363C86.7751 113.677 87.2977 113.833 87.8725 113.833C88.4473 113.833 88.9176 113.677 89.3357 113.363C89.7015 113.05 90.015 112.631 90.224 112.109C90.433 111.586 90.5375 110.959 90.5375 110.332C90.5375 109.653 90.433 109.078 90.2763 108.503C90.1195 107.928 89.8059 107.51 89.4402 107.197C89.0744 106.883 88.5518 106.727 88.0293 106.727C87.4545 106.727 86.9319 106.883 86.5661 107.197C86.2003 107.51 85.8868 107.928 85.6778 108.503C85.4688 109.078 85.3643 109.653 85.3643 110.28C85.3643 110.959 85.4688 111.534 85.6255 112.057C85.73 112.631 85.9913 113.05 86.4094 113.363Z" fill="#CEB3EF"/>
<path d="M276.775 198.748L249.707 178.316L210.777 207.684L248.923 236.476L244.272 203.294L276.775 198.748Z" fill="#CEB3EF"/>
<path d="M162.023 138.968C161.605 138.655 161.135 138.498 160.665 138.498C160.194 138.498 159.724 138.655 159.254 138.968C158.784 139.282 158.366 139.7 157.948 140.274C157.529 140.849 157.268 141.372 157.111 141.947C156.955 142.469 156.955 142.992 157.059 143.462C157.164 143.932 157.477 144.298 157.895 144.612C158.366 144.925 158.836 145.082 159.306 145.082C159.776 145.082 160.247 144.925 160.717 144.612C161.187 144.298 161.605 143.88 162.023 143.305C162.441 142.783 162.703 142.208 162.859 141.685C163.016 141.163 163.016 140.64 162.912 140.17C162.755 139.7 162.494 139.282 162.023 138.968Z" fill="#CEB3EF"/>
<path d="M94.091 131.391C105.535 131.391 115.986 135.467 124.085 142.26L143.89 157.205L139.24 124.18L171.951 119.581L150.109 103.069C139.292 94.9693 118.651 84.4137 94.0388 84.4137C81.184 84.4137 68.9562 87.0265 57.8259 91.6772C53.1229 93.6629 48.629 95.9621 44.3963 98.6794L39.8501 130.869L74.2863 135.728C80.2956 132.959 86.9843 131.391 94.091 131.391ZM107.259 107.511C107.677 106.674 108.304 105.995 109.036 105.525C109.82 105.055 110.708 104.845 111.753 104.845C112.433 104.845 113.06 104.95 113.634 105.159C114.209 105.368 114.732 105.734 115.202 106.152C115.672 106.57 116.038 107.197 116.299 107.876C116.561 108.556 116.665 109.392 116.665 110.332V111.116L109.14 111.064C109.14 111.691 109.245 112.161 109.454 112.632C109.663 113.102 109.977 113.415 110.395 113.677C110.813 113.938 111.283 114.042 111.858 114.042C112.224 114.042 112.589 113.99 112.851 113.886C113.164 113.781 113.425 113.624 113.634 113.415C113.843 113.206 114 112.945 114.157 112.632L116.561 112.893C116.404 113.52 116.143 114.095 115.672 114.513C115.254 114.983 114.732 115.349 114.052 115.61C113.373 115.871 112.642 115.976 111.806 115.976C110.708 115.976 109.768 115.715 108.984 115.297C108.2 114.826 107.573 114.199 107.155 113.363C106.737 112.527 106.528 111.534 106.528 110.385C106.58 109.339 106.841 108.347 107.259 107.511ZM95.0316 107.301C95.4496 106.465 95.9722 105.838 96.6515 105.42C97.3308 105.002 98.0624 104.793 98.8985 104.793C99.5255 104.793 100.048 104.898 100.466 105.107C100.884 105.316 101.198 105.577 101.459 105.891C101.72 106.204 101.877 106.465 102.034 106.727H102.138L102.191 101.344H104.751L104.647 115.767H102.138V114.042H101.982C101.825 114.304 101.668 114.565 101.407 114.878C101.145 115.192 100.832 115.401 100.414 115.61C99.9958 115.819 99.4733 115.924 98.8462 115.924C98.0101 115.924 97.2263 115.715 96.547 115.244C95.8677 114.826 95.3451 114.147 94.9793 113.311C94.6136 112.475 94.4045 111.482 94.4045 110.28C94.4568 109.13 94.6658 108.085 95.0316 107.301ZM83.3264 107.354C83.7445 106.518 84.3715 105.891 85.1554 105.42C85.9392 104.95 86.8275 104.741 87.9249 104.741C88.97 104.741 89.9106 105.002 90.6944 105.473C91.4782 105.943 92.0531 106.622 92.4711 107.458C92.8891 108.294 93.0981 109.287 93.0981 110.385C93.0981 111.482 92.8891 112.475 92.4188 113.311C91.9485 114.147 91.3737 114.774 90.5899 115.244C89.8061 115.715 88.9177 115.924 87.8204 115.924C86.723 115.924 85.8347 115.662 85.0509 115.192C84.267 114.722 83.6922 114.042 83.2742 113.206C82.8561 112.37 82.6471 111.377 82.6471 110.28C82.6471 109.183 82.9084 108.19 83.3264 107.354ZM72.1961 113.102C71.778 112.266 71.569 111.273 71.569 110.176C71.569 109.078 71.778 108.085 72.1961 107.249C72.6141 106.413 73.2412 105.734 74.025 105.264C74.8088 104.793 75.6972 104.584 76.7945 104.584C77.6829 104.584 78.4667 104.741 79.146 105.107C79.8253 105.42 80.3479 105.891 80.7659 106.465C81.184 107.04 81.393 107.72 81.4452 108.503H78.9892C78.8847 107.981 78.6757 107.563 78.3099 107.197C77.9441 106.831 77.4738 106.674 76.8468 106.674C76.3242 106.674 75.8539 106.831 75.4881 107.092C75.0701 107.354 74.7566 107.772 74.5476 108.294C74.3385 108.817 74.234 109.444 74.234 110.176C74.234 110.907 74.3385 111.534 74.5476 112.057C74.7566 112.579 75.0701 112.997 75.4359 113.259C75.8017 113.52 76.272 113.677 76.7945 113.677C77.1603 113.677 77.5261 113.624 77.7874 113.468C78.1009 113.311 78.3622 113.102 78.519 112.841C78.728 112.579 78.8847 112.213 78.937 111.848H81.393C81.3407 112.632 81.0794 113.311 80.7137 113.886C80.3479 114.46 79.7731 114.931 79.0937 115.244C78.4144 115.558 77.6306 115.715 76.7423 115.715C75.6449 115.715 74.7566 115.453 73.9727 114.983C73.1889 114.617 72.6141 113.99 72.1961 113.102Z" fill="#CEB3EF"/>
<path d="M173.466 152.45C173.257 152.345 173.048 152.241 172.839 152.136C172.63 152.032 172.474 151.927 172.317 151.875C172.003 151.666 171.637 151.562 171.324 151.457C171.01 151.353 170.749 151.353 170.436 151.405C170.122 151.457 169.965 151.614 169.756 151.875C169.495 152.241 169.391 152.659 169.547 153.025C169.704 153.443 169.965 153.756 170.383 154.07C170.801 154.383 171.219 154.54 171.638 154.592C172.056 154.645 172.474 154.592 172.839 154.436C173.205 154.279 173.519 154.07 173.728 153.704L174.459 152.659C174.355 152.659 174.198 152.659 174.041 152.554C173.884 152.607 173.728 152.554 173.466 152.45Z" fill="#CEB3EF"/>
<path d="M178.222 124.337L145.562 128.935L150.213 161.96L171.846 178.316L210.776 148.949L178.222 124.337ZM159.462 147.486C158.678 147.433 157.894 147.172 157.215 146.649C156.692 146.284 156.379 145.918 156.17 145.5C155.961 145.082 155.856 144.716 155.804 144.298C155.804 143.932 155.804 143.566 155.856 143.305L155.752 143.253L152.355 147.904L150.317 146.388L159.148 134.37L161.186 135.833L160.141 137.296L160.246 137.4C160.507 137.244 160.821 137.139 161.186 137.035C161.552 136.93 161.97 136.93 162.44 136.982C162.911 137.035 163.381 137.296 163.904 137.662C164.583 138.132 165.053 138.759 165.367 139.543C165.68 140.274 165.733 141.11 165.524 141.999C165.314 142.887 164.896 143.828 164.217 144.821C163.538 145.761 162.754 146.493 161.97 146.911C161.03 147.381 160.246 147.538 159.462 147.486ZM162.493 150.307L171.063 138.654L173.101 140.17L164.531 151.823L162.493 150.307ZM171.533 156.996L172.421 155.794L172.369 155.742C172.055 155.899 171.742 156.003 171.324 156.055C170.906 156.108 170.54 156.055 170.122 155.951C169.704 155.846 169.234 155.585 168.816 155.272C168.241 154.854 167.823 154.383 167.561 153.861C167.3 153.338 167.143 152.763 167.143 152.189C167.196 151.614 167.405 151.039 167.823 150.464C168.189 149.994 168.554 149.628 168.972 149.419C169.39 149.21 169.808 149.158 170.279 149.21C170.749 149.262 171.219 149.367 171.69 149.576C172.16 149.785 172.63 149.994 173.101 150.255C173.675 150.569 174.093 150.83 174.459 151.039C174.825 151.248 175.086 151.352 175.295 151.352C175.504 151.352 175.713 151.3 175.818 151.091V151.039C176.131 150.621 176.236 150.203 176.184 149.785C176.079 149.367 175.818 149.001 175.347 148.635C174.825 148.269 174.355 148.06 173.884 148.06C173.414 148.06 173.048 148.165 172.735 148.426L171.01 146.754C171.533 146.336 172.108 146.075 172.735 145.97C173.362 145.866 173.989 145.918 174.616 146.127C175.243 146.336 175.87 146.65 176.497 147.068C176.915 147.381 177.281 147.747 177.647 148.113C178.013 148.478 178.274 148.949 178.431 149.419C178.587 149.889 178.64 150.412 178.587 150.934C178.535 151.457 178.274 152.032 177.856 152.607L173.571 158.459L171.533 156.996ZM187.157 159.922L183.081 165.461L181.043 163.946L184.91 158.72C185.328 158.146 185.537 157.571 185.485 156.996C185.433 156.421 185.119 155.951 184.597 155.585C184.231 155.324 183.865 155.167 183.447 155.115C183.029 155.063 182.663 155.115 182.297 155.324C181.932 155.533 181.566 155.794 181.252 156.212L177.49 161.333L175.452 159.818L181.879 151.091L183.865 152.554L182.768 154.017L182.872 154.07C183.447 153.704 184.022 153.599 184.701 153.599C185.328 153.652 186.008 153.913 186.635 154.383C187.262 154.801 187.68 155.324 187.941 155.951C188.202 156.526 188.255 157.153 188.15 157.832C187.993 158.564 187.627 159.243 187.157 159.922Z" fill="#CEB3EF"/>
</svg>
